curl -X GET "http://api.mbiz.loc/quotations?limit=2&page=1" -H  "accept: application/json" -H  "AccessToken: a1e52f3647b6337e59d8614b6a25b736"

Response : 200 OK

{
    "items": [
      {
        "id": "1",
        "quotation_no": "QN-V1-170912-1",
        "rfq_id": "2",
        "revision_id": "2",
        "company_buyer_id": "3",
        "company_seller_id": "1",
        "shopping_cart_id": "4",
        "parent_id": "2",
        "type": "2",
        "shipment_type": "1",
        "notes": "2",
        "purposes": null,
        "received_email": "receiver email mbiz",
        "received_name": "receiver name mbiz",
        "received_phone": "receiver phone mbiz",
        "shipping_address": "receiver address mbiz",
        "shipping_country": null,
        "shipping_province": null,
        "shipping_city": null,
        "shipping_district": null,
        "shipping_zipcode": null,
        "shipping_phone": null,
        "shipping_phone_prefix": null,
        "billing_address": "Jalan HR Rasuna Said Kav. B 12",
        "billing_country": "Indonesia",
        "billing_province": "DKI Jakarta",
        "billing_city": "Kota Adm. Jakarta Selatan",
        "billing_district": "Karet Kuningan",
        "billing_zipcode": "12920",
        "billing_phone": "021 29110888",
        "billing_phone_prefix": "+62",
        "sub_total": "236454.00",
        "shipping_cost": "0.00",
        "tax_basis": "236454.00",
        "vat": "23645.00",
        "income_tax": "0.00",
        "grand_total": "260100.00",
        "rounding": "1.00",
        "status": "2",
        "valid_date": null,
        "created_at": "2017-09-12 11:54:08",
        "updated_at": "2017-09-12 11:54:08",
        "status_reason": "0",
        "reason_note": null,
        "is_mou": "0"
      },
      {
        "id": "2",
        "quotation_no": "QN-C3-170912-1",
        "rfq_id": "1",
        "revision_id": "10951",
        "company_buyer_id": "3",
        "company_seller_id": "0",
        "shopping_cart_id": "4",
        "parent_id": "0",
        "type": "1",
        "shipment_type": "1",
        "notes": "tes keperluan",
        "purposes": null,
        "received_email": "",
        "received_name": "Andriana",
        "received_phone": "021-23423",
        "shipping_address": "Jl. Lawe Sigalagala Aceh No 990",
        "shipping_country": "INDONESIA",
        "shipping_province": "ACEH",
        "shipping_city": "KAB. ACEH TENGGARA",
        "shipping_district": "Lawe Sigala-Gala",
        "shipping_zipcode": "54343",
        "shipping_phone": "021-23423",
        "shipping_phone_prefix": "",
        "billing_address": "Jl. Lawe Sigalagala Aceh No 990",
        "billing_country": "INDONESIA",
        "billing_province": "ACEH",
        "billing_city": "KAB. ACEH TENGGARA",
        "billing_district": "Lawe Sigala-Gala",
        "billing_zipcode": "54343",
        "billing_phone": "021-2389742",
        "billing_phone_prefix": "",
        "sub_total": "252816.00",
        "shipping_cost": "81000.00",
        "tax_basis": "333816.00",
        "vat": "33381.00",
        "income_tax": "0.00",
        "grand_total": "367197.00",
        "rounding": "0.00",
        "status": "6",
        "valid_date": "2017-09-15 18:54:57",
        "created_at": "2017-09-12 11:54:57",
        "updated_at": "2017-09-12 11:54:57",
        "status_reason": "0",
        "reason_note": null,
        "is_mou": "0"
      }
    ],
    "pagination": {
      "first": 1,
      "per_page": "2",
      "limit": "2",
      "current": "1",
      "page": "1",
      "total_items": 7956,
      "last": 3978,
      "total_pages": 3978,
      "has_next": true,
      "has_previous": false,
      "next": 2
    }
  }