curl -X GET "http://api.mbiz.loc/purchase/orders?limit=2&page=1" -H  "accept: application/json" -H  "AccessToken: a1e52f3647b6337e59d8614b6a25b736"

Response : 200 OK

{
    "items": [
      {
        "id": 4253,
        "revision_id": "8463",
        "purchase_request_id": "2086",
        "quotation_id": "7992",
        "purchase_order_type": "2",
        "company_seller_id": "124",
        "company_buyer_id": "86",
        "shopping_cart_id": "1945",
        "purchase_order_no": "PO-V124-180926-5",
        "shipment_type": "1",
        "notes": "",
        "term_of_payment": "0",
        "status": 10,
        "parent_id": "4252",
        "sub_total": "110000.00",
        "shipping_cost": "0.00",
        "tax_basis": "110000.00",
        "vat": "0.00",
        "income_tax": "0.00",
        "grand_total": "110000.00",
        "rounding": "0.00",
        "shipping_method": "0",
        "shipping_price_estimation": null,
        "shipping_country": null,
        "shipping_province": null,
        "shipping_city": null,
        "shipping_district": null,
        "shipping_zipcode": null,
        "shipping_address": null,
        "shipping_phone": null,
        "shipping_phone_prefix": null,
        "billing_country": "Indonesia",
        "billing_province": "DKI Jakarta",
        "billing_city": "Kota Adm. Jakarta Selatan",
        "billing_district": "Karet Kuningan",
        "billing_zipcode": "12920",
        "billing_address": "Jalan HR Rasuna Said Kav. B 12",
        "billing_phone": "021 29110888",
        "billing_phone_prefix": "+62",
        "valid_date": "2018-09-27 00:00:00",
        "created_at": "2018-09-26T07:01:12+00:00",
        "created_by": "130",
        "updated_at": "2018-09-26T07:01:53+00:00",
        "status_reason": "0",
        "reason_note": null
      },
      {
        "id": 4252,
        "revision_id": "8466",
        "purchase_request_id": "2086",
        "quotation_id": "7993",
        "purchase_order_type": "1",
        "company_seller_id": "0",
        "company_buyer_id": "86",
        "shopping_cart_id": "1945",
        "purchase_order_no": "PO-C86-180926-5",
        "shipment_type": "1",
        "notes": "Acceptsuperadmin",
        "term_of_payment": "0",
        "status": 11,
        "parent_id": "0",
        "sub_total": "121363.00",
        "shipping_cost": "28500.00",
        "tax_basis": "149863.00",
        "vat": "14986.00",
        "income_tax": "0.00",
        "grand_total": "164849.00",
        "rounding": null,
        "shipping_method": "0",
        "shipping_price_estimation": null,
        "shipping_country": "Indonesia",
        "shipping_province": "BANTEN",
        "shipping_city": "KOTA TANGERANG SELATAN",
        "shipping_district": "Ciputat",
        "shipping_zipcode": "14151",
        "shipping_address": "Jl. pinguin 44",
        "shipping_phone": "08123123",
        "shipping_phone_prefix": "+62",
        "billing_country": "INDONESIA",
        "billing_province": "SUMATERA UTARA",
        "billing_city": "KAB. KARO",
        "billing_district": "Berastagi",
        "billing_zipcode": "1231515",
        "billing_address": "Jl.  menajngan",
        "billing_phone": "01283123",
        "billing_phone_prefix": "",
        "valid_date": null,
        "created_at": "2018-09-26T07:00:49+00:00",
        "created_by": "351",
        "updated_at": "2018-09-26T07:03:06+00:00",
        "status_reason": "0",
        "reason_note": null
      }
    ],
    "pagination": {
      "page": 1,
      "total_pages": 2096,
      "total_items": 4191,
      "per_page": "2",
      "has_next": true,
      "has_previous": false
    }
  }