curl -X GET "http://api.mbiz.loc/rfqs?limit=2&page=1" -H  "accept: application/json" -H  "AccessToken: a1e52f3647b6337e59d8614b6a25b736"

Response : 200 OK

{
    "items": [
      {
        "id": "1",
        "rfq_no": "RFQ-C3-170912-1",
        "reference_no": "",
        "revision_id": "4",
        "company_buyer_id": "3",
        "company_seller_id": "0",
        "shopping_cart_id": "4",
        "parent_id": "0",
        "type": "1",
        "shipment_type": "1",
        "notes": "tes keperluan",
        "request_notes": null,
        "status": "4",
        "status_label": "Quotation Submitted",
        "reason_note": null,
        "created_at": "2017-09-12 11:54:06",
        "reserved_stock_duration": null,
        "shipping_address": "Jl. Lawe Sigalagala Aceh No 990",
        "shipping_country": "INDONESIA",
        "shipping_province": "ACEH",
        "shipping_city": "KAB. ACEH TENGGARA",
        "shipping_district": "Lawe Sigala-Gala",
        "shipping_zipcode": "54343",
        "shipping_phone": "021-23423",
        "shipping_phone_prefix": "",
        "billing_address": "Jl. Lawe Sigalagala Aceh No 990",
        "billing_country": "INDONESIA",
        "billing_province": "ACEH",
        "billing_city": "KAB. ACEH TENGGARA",
        "billing_district": "Lawe Sigala-Gala",
        "billing_zipcode": "54343",
        "billing_phone": "021-2389742",
        "billing_phone_prefix": "",
        "received_name": "Andriana",
        "received_phone": "021-23423",
        "received_email": "",
        "sub_total": "252816.00",
        "shipping_cost": "81000.00",
        "tax_basis": "333816.00",
        "vat": "33381.00",
        "income_tax": "0.00",
        "grand_total": "367197.00",
        "rounding": null,
        "valid_date": "2017-09-15 11:54:06",
        "created_by": "13",
        "requested_by": "13",
        "updated_at": "2017-09-12 11:54:57",
        "is_final": "0",
        "is_mou": null
      },
      {
        "id": "2",
        "rfq_no": "RFQ-V1-170912-1",
        "reference_no": "",
        "revision_id": "3",
        "company_buyer_id": "3",
        "company_seller_id": "1",
        "shopping_cart_id": "4",
        "parent_id": "1",
        "type": "2",
        "shipment_type": "1",
        "notes": "2",
        "request_notes": null,
        "status": "6",
        "status_label" : "Accepted"
        "reason_note": null,
        "created_at": "2017-09-12 11:54:07",
        "reserved_stock_duration": null,
        "shipping_address": null,
        "shipping_country": null,
        "shipping_province": null,
        "shipping_city": null,
        "shipping_district": null,
        "shipping_zipcode": null,
        "shipping_phone": null,
        "shipping_phone_prefix": null,
        "billing_address": "Jalan HR Rasuna Said Kav. B 12",
        "billing_country": "Indonesia",
        "billing_province": "DKI Jakarta",
        "billing_city": "Kota Adm. Jakarta Selatan",
        "billing_district": "Karet Kuningan",
        "billing_zipcode": "12920",
        "billing_phone": "021 29110888",
        "billing_phone_prefix": "+62",
        "received_name": "Andriana",
        "received_phone": "021-23423",
        "received_email": "",
        "sub_total": "236454.00",
        "shipping_cost": "0.00",
        "tax_basis": "236454.00",
        "vat": "23645.00",
        "income_tax": "0.00",
        "grand_total": "260100.00",
        "rounding": "1.00",
        "valid_date": "2017-09-15 11:54:07",
        "created_by": "13",
        "requested_by": null,
        "updated_at": "2018-07-13 08:22:09",
        "is_final": "1",
        "is_mou": null
      }
    ],
    "pagination": {
      "first": 1,
      "per_page": "2",
      "limit": "2",
      "current": "1",
      "page": "1",
      "total_items": 8943,
      "last": 4472,
      "total_pages": 4472,
      "has_next": true,
      "has_previous": false,
      "next": 2
    }
  }