curl -X GET "http://api.mbiz.loc/carts/company_buyer/20?limit=2&page=1" -H  "accept: application/json"

Response 200 OK
{
    "items": {
      "382": {
        "id": 382,
        "title": "R1 JKT Cart ",
        "user_buyer_id": 118,
        "company_buyer_id": "20",
        "company_shipping_address_id": 68,
        "status": 0,
        "created_at": "2017-11-14T08:13:44+00:00",
        "updated_at": "2017-11-14T08:13:44+00:00"
      },
      "388": {
        "id": 388,
        "title": "R2 JKT Cart",
        "user_buyer_id": 119,
        "company_buyer_id": "20",
        "company_shipping_address_id": 68,
        "status": 0,
        "created_at": "2017-11-14T10:20:42+00:00",
        "updated_at": "2017-11-14T10:20:42+00:00"
      }
    },
    "pagination": {
      "first": 1,
      "per_page": 2,
      "limit": 2,
      "current": 1,
      "page": 1,
      "total_items": 19,
      "last": 10,
      "total_pages": 10,
      "has_next": true,
      "has_previous": false,
      "next": 2
    }
  }